0.000; DiagTimingPoints; points="58"
0.000; TeamsInCorrectOrder; 
2:19:47.559; TeamsNotInCorrectOrder; 
2:20:02.200; TeamGarageFound; sector="1", distance="-152.59326171875", rfpos="1", vehicle="Corvette C6.R GT2 #03"
2:43:33.000; TeamAlmostSpeeded; vehicle="Corvette C6.R GT2 #03"
8:01:42.400; TeamGarageFound; sector="1", distance="102.81944274902344", rfpos="1", vehicle="Rebellion Racing Lola B12/60 Toyota"
